(module ESP32 (layer F.Cu) (tedit 5CDCC4CA)
  (fp_text reference REF** (at 0 0.5) (layer F.SilkS)
    (effects (font (size 1 1) (thickness 0.15)))
  )
  (fp_text value ESP32 (at 0 -0.5) (layer F.Fab)
    (effects (font (size 1 1) (thickness 0.15)))
  )
  (fp_line (start -15.24 10.16) (end -15.24 -38.1) (layer F.SilkS) (width 0.15))
  (fp_line (start -15.24 -38.1) (end 15.24 -38.1) (layer F.SilkS) (width 0.15))
  (fp_line (start 15.24 -38.1) (end 15.24 10.16) (layer F.SilkS) (width 0.15))
  (fp_line (start 15.24 10.16) (end -15.24 10.16) (layer F.SilkS) (width 0.15))
  (fp_line (start -2.54 10.16) (end -2.54 7.62) (layer F.SilkS) (width 0.15))
  (fp_line (start -2.54 7.62) (end 2.54 7.62) (layer F.SilkS) (width 0.15))
  (fp_line (start 2.54 7.62) (end 2.54 10.16) (layer F.SilkS) (width 0.15))
  (fp_text user "ESP32 DEVKIT" (at 0 -17.78) (layer F.SilkS)
    (effects (font (size 1 1) (thickness 0.15)))
  )
  (pad 1 thru_hole circle (at -12.7 5.08) (size 2 2) (drill 1.2) (layers *.Cu *.Mask))
  (pad 2 thru_hole circle (at -12.7 2.54) (size 2 2) (drill 1.2) (layers *.Cu *.Mask))
  (pad 3 thru_hole circle (at -12.7 0) (size 2 2) (drill 1.2) (layers *.Cu *.Mask))
  (pad 4 thru_hole circle (at -12.7 -2.54) (size 2 2) (drill 1.2) (layers *.Cu *.Mask))
  (pad 5 thru_hole circle (at -12.7 -5.08) (size 2 2) (drill 1.2) (layers *.Cu *.Mask))
  (pad 6 thru_hole circle (at -12.7 -7.62) (size 2 2) (drill 1.2) (layers *.Cu *.Mask))
  (pad 7 thru_hole circle (at -12.7 -10.16) (size 2 2) (drill 1.2) (layers *.Cu *.Mask))
  (pad 8 thru_hole circle (at -12.7 -12.7) (size 2 2) (drill 1.2) (layers *.Cu *.Mask))
  (pad 9 thru_hole circle (at -12.7 -15.24) (size 2 2) (drill 1.2) (layers *.Cu *.Mask))
  (pad 10 thru_hole circle (at -12.7 -17.78) (size 2 2) (drill 1.2) (layers *.Cu *.Mask))
  (pad 11 thru_hole circle (at -12.7 -20.32) (size 2 2) (drill 1.2) (layers *.Cu *.Mask))
  (pad 12 thru_hole circle (at -12.7 -22.86) (size 2 2) (drill 1.2) (layers *.Cu *.Mask))
  (pad 13 thru_hole circle (at -12.7 -25.4) (size 2 2) (drill 1.2) (layers *.Cu *.Mask))
  (pad 14 thru_hole circle (at -12.7 -27.94) (size 2 2) (drill 1.2) (layers *.Cu *.Mask))
  (pad 15 thru_hole circle (at -12.7 -30.48) (size 2 2) (drill 1.2) (layers *.Cu *.Mask))
  (pad 16 thru_hole circle (at 12.7 -30.48) (size 2 2) (drill 1.2) (layers *.Cu *.Mask))
  (pad 17 thru_hole circle (at 12.7 -27.94) (size 2 2) (drill 1.2) (layers *.Cu *.Mask))
  (pad 18 thru_hole circle (at 12.7 -25.4) (size 2 2) (drill 1.2) (layers *.Cu *.Mask))
  (pad 19 thru_hole circle (at 12.7 -22.86) (size 2 2) (drill 1.2) (layers *.Cu *.Mask))
  (pad 20 thru_hole circle (at 12.7 -20.32) (size 2 2) (drill 1.2) (layers *.Cu *.Mask))
  (pad 21 thru_hole circle (at 12.7 -17.78) (size 2 2) (drill 1.2) (layers *.Cu *.Mask))
  (pad 22 thru_hole circle (at 12.7 -15.24) (size 2 2) (drill 1.2) (layers *.Cu *.Mask))
  (pad 23 thru_hole circle (at 12.7 -12.7) (size 2 2) (drill 1.2) (layers *.Cu *.Mask))
  (pad 24 thru_hole circle (at 12.7 -10.16) (size 2 2) (drill 1.2) (layers *.Cu *.Mask))
  (pad 25 thru_hole circle (at 12.7 -7.62) (size 2 2) (drill 1.2) (layers *.Cu *.Mask))
  (pad 26 thru_hole circle (at 12.7 -5.08) (size 2 2) (drill 1.2) (layers *.Cu *.Mask))
  (pad 27 thru_hole circle (at 12.7 -2.54) (size 2 2) (drill 1.2) (layers *.Cu *.Mask))
  (pad 28 thru_hole circle (at 12.7 0) (size 2 2) (drill 1.2) (layers *.Cu *.Mask))
  (pad 29 thru_hole circle (at 12.7 2.54) (size 2 2) (drill 1.2) (layers *.Cu *.Mask))
  (pad 30 thru_hole circle (at 12.7 5.08) (size 2 2) (drill 1.2) (layers *.Cu *.Mask))
)
