(module "Speaker 12085" (layer F.Cu) (tedit 5BB99B23)
  (fp_text reference REF** (at 0 0.5) (layer F.SilkS)
    (effects (font (size 1 1) (thickness 0.15)))
  )
  (fp_text value "Speaker 12085" (at 0 -0.5) (layer F.Fab)
    (effects (font (size 1 1) (thickness 0.15)))
  )
  (fp_circle (center 0 0) (end 6 -0.25) (layer F.SilkS) (width 0.15))
  (pad 1 thru_hole circle (at -3.25 0) (size 1.524 1.524) (drill 0.762) (layers *.Cu *.Mask))
  (pad 2 thru_hole circle (at 3.25 0) (size 1.524 1.524) (drill 0.762) (layers *.Cu *.Mask))
)
