EESchema Schematic File Version 4
EELAYER 30 0
EELAYER END
$Descr A4 11693 8268
encoding utf-8
Sheet 1 1
Title ""
Date ""
Rev ""
Comp ""
Comment1 ""
Comment2 ""
Comment3 ""
Comment4 ""
$EndDescr
$Comp
L UselessBox-rescue:ATmega328P-PU-MCU_Microchip_ATmega U1
U 1 1 5CF39623
P 1800 2400
F 0 "U1" H 1159 2446 50  0000 R CNN
F 1 "ATmega328P-PU" V 1159 2355 50  0000 R CNN
F 2 "Package_DIP:DIP-28_W7.62mm" H 1800 2400 50  0001 C CIN
F 3 "http://ww1.microchip.com/downloads/en/DeviceDoc/ATmega328_P%20AVR%20MCU%20with%20picoPower%20Technology%20Data%20Sheet%2040001984A.pdf" H 1800 2400 50  0001 C CNN
	1    1800 2400
	1    0    0    -1  
$EndComp
$Comp
L power:+5V #PWR0102
U 1 1 5CF3BB31
P 1850 800
F 0 "#PWR0102" H 1850 650 50  0001 C CNN
F 1 "+5V" H 1865 973 50  0000 C CNN
F 2 "" H 1850 800 50  0001 C CNN
F 3 "" H 1850 800 50  0001 C CNN
	1    1850 800 
	1    0    0    -1  
$EndComp
Wire Wire Line
	1850 800  1850 900 
Wire Wire Line
	1850 900  1800 900 
Wire Wire Line
	1850 900  1900 900 
Connection ~ 1850 900 
$Comp
L power:GND #PWR0103
U 1 1 5CF3C16B
P 1800 3900
F 0 "#PWR0103" H 1800 3650 50  0001 C CNN
F 1 "GND" H 1805 3727 50  0000 C CNN
F 2 "" H 1800 3900 50  0001 C CNN
F 3 "" H 1800 3900 50  0001 C CNN
	1    1800 3900
	1    0    0    -1  
$EndComp
Text HLabel 2500 3100 2    50   Input ~ 0
SERVO_X_SIG
Text HLabel 2500 3200 2    50   Input ~ 0
SERVO_Y_SIG
Text HLabel 2400 1300 2    50   Input ~ 0
SW_0
Text HLabel 2400 1400 2    50   Input ~ 0
SW_1
Text HLabel 2400 1500 2    50   Input ~ 0
SW_2
Text HLabel 2400 1600 2    50   Input ~ 0
SW_3
Text HLabel 2400 1700 2    50   Input ~ 0
SW_4
Text HLabel 2400 3600 2    50   Input ~ 0
PIN_PWR
$Comp
L Device:C_Small C1
U 1 1 5CF42BC3
P 3600 2700
F 0 "C1" V 3750 2700 50  0000 C CNN
F 1 "0.1uf" V 3700 2700 50  0000 C CNN
F 2 "Resistor_SMD:R_1206_3216Metric_Pad1.42x1.75mm_HandSolder" H 3600 2700 50  0001 C CNN
F 3 "~" H 3600 2700 50  0001 C CNN
	1    3600 2700
	0    1    1    0   
$EndComp
Text HLabel 3700 2700 2    50   Input ~ 0
RST
$Comp
L Device:C_Small C3
U 1 1 5CF434C2
P 3250 2050
F 0 "C3" H 3158 2004 50  0000 R CNN
F 1 "22pf" H 3158 2095 50  0000 R CNN
F 2 "Capacitor_SMD:C_1206_3216Metric_Pad1.42x1.75mm_HandSolder" H 3250 2050 50  0001 C CNN
F 3 "~" H 3250 2050 50  0001 C CNN
	1    3250 2050
	-1   0    0    1   
$EndComp
$Comp
L Device:C_Small C2
U 1 1 5CF43599
P 3250 1550
F 0 "C2" H 3158 1504 50  0000 R CNN
F 1 "22pf" H 3158 1595 50  0000 R CNN
F 2 "Capacitor_SMD:C_1206_3216Metric_Pad1.42x1.75mm_HandSolder" H 3250 1550 50  0001 C CNN
F 3 "~" H 3250 1550 50  0001 C CNN
	1    3250 1550
	-1   0    0    1   
$EndComp
$Comp
L Device:Crystal Y1
U 1 1 5CF436BE
P 3250 1800
F 0 "Y1" V 3204 1931 50  0000 L CNN
F 1 "Crystal16MHz" V 3295 1931 50  0000 L CNN
F 2 "Crystal:Crystal_SMD_HC49-SD" H 3250 1800 50  0001 C CNN
F 3 "~" H 3250 1800 50  0001 C CNN
	1    3250 1800
	0    1    1    0   
$EndComp
$Comp
L power:GND #PWR0118
U 1 1 5CF43853
P 3250 2150
F 0 "#PWR0118" H 3250 1900 50  0001 C CNN
F 1 "GND" H 3255 1977 50  0000 C CNN
F 2 "" H 3250 2150 50  0001 C CNN
F 3 "" H 3250 2150 50  0001 C CNN
	1    3250 2150
	1    0    0    -1  
$EndComp
$Comp
L power:GND #PWR0119
U 1 1 5CF438D6
P 3250 1450
F 0 "#PWR0119" H 3250 1200 50  0001 C CNN
F 1 "GND" H 3255 1277 50  0000 C CNN
F 2 "" H 3250 1450 50  0001 C CNN
F 3 "" H 3250 1450 50  0001 C CNN
	1    3250 1450
	-1   0    0    1   
$EndComp
Wire Wire Line
	2400 1800 3100 1800
Wire Wire Line
	3100 1800 3100 1650
Wire Wire Line
	3100 1650 3250 1650
Connection ~ 3250 1650
Wire Wire Line
	3250 1950 3100 1950
Wire Wire Line
	3100 1950 3100 1900
Wire Wire Line
	3100 1900 2400 1900
Connection ~ 3250 1950
$Comp
L power:+5V #PWR0120
U 1 1 5CF44A94
P 1200 1200
F 0 "#PWR0120" H 1200 1050 50  0001 C CNN
F 1 "+5V" V 1215 1328 50  0000 L CNN
F 2 "" H 1200 1200 50  0001 C CNN
F 3 "" H 1200 1200 50  0001 C CNN
	1    1200 1200
	0    -1   -1   0   
$EndComp
$Comp
L Connector:Conn_01x03_Female J5
U 1 1 5CF45ECF
P 2800 700
F 0 "J5" V 2740 512 50  0000 R CNN
F 1 "WS2812b" V 2900 850 50  0000 R CNN
F 2 "jakelib:WS2812bStripSingleNoOut" H 2800 700 50  0001 C CNN
F 3 "~" H 2800 700 50  0001 C CNN
	1    2800 700 
	0    -1   -1   0   
$EndComp
$Comp
L power:GND #PWR0121
U 1 1 5CF460D7
P 2700 900
F 0 "#PWR0121" H 2700 650 50  0001 C CNN
F 1 "GND" H 2705 727 50  0000 C CNN
F 2 "" H 2700 900 50  0001 C CNN
F 3 "" H 2700 900 50  0001 C CNN
	1    2700 900 
	1    0    0    -1  
$EndComp
Wire Wire Line
	2800 1200 2800 900 
Wire Wire Line
	2400 1200 2800 1200
$Comp
L power:+5V #PWR0122
U 1 1 5CF4761C
P 2900 900
F 0 "#PWR0122" H 2900 750 50  0001 C CNN
F 1 "+5V" V 2915 1028 50  0000 L CNN
F 2 "" H 2900 900 50  0001 C CNN
F 3 "" H 2900 900 50  0001 C CNN
	1    2900 900 
	0    1    1    0   
$EndComp
Text HLabel 2400 3000 2    50   Input ~ 0
TX
Text HLabel 2400 2900 2    50   Input ~ 0
RX
$Comp
L Connector:Conn_01x06_Female J10
U 1 1 5CF9F8C5
P 2700 2300
F 0 "J10" H 2727 2276 50  0000 L CNN
F 1 "Conn_01x06_Female" H 2727 2185 50  0000 L CNN
F 2 "Connector_PinHeader_2.54mm:PinHeader_1x06_P2.54mm_Vertical" H 2700 2300 50  0001 C CNN
F 3 "~" H 2700 2300 50  0001 C CNN
	1    2700 2300
	1    0    0    -1  
$EndComp
Wire Wire Line
	2400 2100 2500 2100
Wire Wire Line
	2500 2200 2400 2200
Wire Wire Line
	2400 2300 2500 2300
Wire Wire Line
	2500 2400 2400 2400
Wire Wire Line
	2400 2500 2500 2500
Wire Wire Line
	2500 2600 2400 2600
Wire Wire Line
	2400 3100 2500 3100
Wire Wire Line
	2500 3200 2400 3200
$Comp
L Device:R_Small R2
U 1 1 5D1F16C2
P 3250 2800
F 0 "R2" H 3309 2846 50  0000 L CNN
F 1 "10k" H 3309 2755 50  0000 L CNN
F 2 "Resistor_SMD:R_1206_3216Metric_Pad1.42x1.75mm_HandSolder" H 3250 2800 50  0001 C CNN
F 3 "~" H 3250 2800 50  0001 C CNN
	1    3250 2800
	1    0    0    -1  
$EndComp
$Comp
L power:+5V #PWR0130
U 1 1 5D1F33F9
P 3250 2900
F 0 "#PWR0130" H 3250 2750 50  0001 C CNN
F 1 "+5V" V 3265 3028 50  0000 L CNN
F 2 "" H 3250 2900 50  0001 C CNN
F 3 "" H 3250 2900 50  0001 C CNN
	1    3250 2900
	-1   0    0    1   
$EndComp
Wire Wire Line
	2400 2700 3250 2700
Wire Wire Line
	3250 2700 3500 2700
Connection ~ 3250 2700
Text Notes 2300 4050 0    118  ~ 0
Microcontroller
Wire Notes Line
	750  5200 750  7700
Wire Notes Line
	4100 5200 750  5200
Wire Notes Line
	4100 7700 4100 5200
Wire Notes Line
	750  7700 4100 7700
Connection ~ 2650 6400
Wire Wire Line
	2000 6400 2650 6400
Wire Wire Line
	2000 6150 2000 6400
Wire Wire Line
	2400 6050 3400 6050
Wire Wire Line
	900  5950 900  7500
Wire Wire Line
	900  5950 2000 5950
$Comp
L Switch:SW_SPDT SW6
U 1 1 5D4A6F5B
P 2200 6050
F 0 "SW6" H 2200 5725 50  0000 C CNN
F 1 "SW_SPDT" H 2200 5816 50  0000 C CNN
F 2 "jakelib:MTS 102 Toggle Switch" H 2200 6050 50  0001 C CNN
F 3 "~" H 2200 6050 50  0001 C CNN
	1    2200 6050
	-1   0    0    1   
$EndComp
Wire Wire Line
	2650 6400 3450 6400
Wire Wire Line
	1250 7500 3900 7500
Connection ~ 1250 7500
Wire Wire Line
	1250 7450 1250 7500
$Comp
L Diode:SM2000 D1
U 1 1 5D387D71
P 1250 7300
F 0 "D1" H 1250 7084 50  0000 C CNN
F 1 "Diode" H 1250 7175 50  0000 C CNN
F 2 "Diode_SMD:D_MELF" H 1250 7125 50  0001 C CNN
F 3 "http://cdn-reichelt.de/documents/datenblatt/A400/SMD1N400%23DIO.pdf" H 1250 7300 50  0001 C CNN
	1    1250 7300
	0    1    1    0   
$EndComp
Wire Wire Line
	2250 7100 2650 7100
Wire Wire Line
	900  7500 1250 7500
$Comp
L power:GND #PWR0132
U 1 1 5D1EBCD8
P 1250 6550
F 0 "#PWR0132" H 1250 6300 50  0001 C CNN
F 1 "GND" V 1255 6377 50  0000 C CNN
F 2 "" H 1250 6550 50  0001 C CNN
F 3 "" H 1250 6550 50  0001 C CNN
	1    1250 6550
	0    1    1    0   
$EndComp
Wire Wire Line
	2650 7100 2650 6400
$Comp
L FlyfarmSymbol:TP5100 U2
U 1 1 5D1E8A82
P 1450 6850
F 0 "U2" V 925 7164 50  0000 C CNN
F 1 "TP5100" V 1016 7164 50  0000 C CNN
F 2 "jakelib:TP5100" H 1450 6850 50  0001 C CNN
F 3 "" H 1450 6850 50  0001 C CNN
	1    1450 6850
	0    1    1    0   
$EndComp
$Comp
L power:GND #PWR0131
U 1 1 5D1E5AB2
P 2250 6600
F 0 "#PWR0131" H 2250 6350 50  0001 C CNN
F 1 "GND" V 2255 6427 50  0000 C CNN
F 2 "" H 2250 6600 50  0001 C CNN
F 3 "" H 2250 6600 50  0001 C CNN
	1    2250 6600
	0    -1   -1   0   
$EndComp
Text GLabel 3400 6050 2    50   Input ~ 0
+7.5v-IN
NoConn ~ 3100 7350
Text Notes 4900 5450 0    118  ~ 0
Voltage Regulation
$Comp
L power:+6V #PWR0123
U 1 1 5D195C1A
P 5800 7200
F 0 "#PWR0123" H 5800 7050 50  0001 C CNN
F 1 "+6V" V 5815 7328 50  0000 L CNN
F 2 "" H 5800 7200 50  0001 C CNN
F 3 "" H 5800 7200 50  0001 C CNN
	1    5800 7200
	0    1    1    0   
$EndComp
$Comp
L power:GND #PWR0112
U 1 1 5D195BA7
P 5700 7200
F 0 "#PWR0112" H 5700 6950 50  0001 C CNN
F 1 "GND" V 5705 7027 50  0000 C CNN
F 2 "" H 5700 7200 50  0001 C CNN
F 3 "" H 5700 7200 50  0001 C CNN
	1    5700 7200
	1    0    0    -1  
$EndComp
$Comp
L power:+7.5V #PWR0111
U 1 1 5D195B66
P 5600 7200
F 0 "#PWR0111" H 5600 7050 50  0001 C CNN
F 1 "+7.5V" V 5615 7328 50  0000 L CNN
F 2 "" H 5600 7200 50  0001 C CNN
F 3 "" H 5600 7200 50  0001 C CNN
	1    5600 7200
	0    -1   -1   0   
$EndComp
Connection ~ 5950 5950
$Comp
L power:+5V #PWR0110
U 1 1 5D194E93
P 5950 5950
F 0 "#PWR0110" H 5950 5800 50  0001 C CNN
F 1 "+5V" V 5965 6078 50  0000 L CNN
F 2 "" H 5950 5950 50  0001 C CNN
F 3 "" H 5950 5950 50  0001 C CNN
	1    5950 5950
	0    1    1    0   
$EndComp
Connection ~ 5350 5950
$Comp
L power:+7.5V #PWR0109
U 1 1 5D1949D7
P 5350 5950
F 0 "#PWR0109" H 5350 5800 50  0001 C CNN
F 1 "+7.5V" V 5365 6078 50  0000 L CNN
F 2 "" H 5350 5950 50  0001 C CNN
F 3 "" H 5350 5950 50  0001 C CNN
	1    5350 5950
	0    -1   -1   0   
$EndComp
Wire Wire Line
	5650 6250 5650 6350
Wire Wire Line
	5950 6050 5950 5950
Connection ~ 5650 6350
Wire Wire Line
	5950 6350 5950 6250
Wire Wire Line
	5650 6350 5950 6350
Wire Wire Line
	5350 6350 5650 6350
Wire Wire Line
	5350 6250 5350 6350
Wire Wire Line
	5350 5950 5350 6050
$Comp
L power:GND #PWR0108
U 1 1 5D18DE7B
P 5650 6350
F 0 "#PWR0108" H 5650 6100 50  0001 C CNN
F 1 "GND" V 5655 6177 50  0000 C CNN
F 2 "" H 5650 6350 50  0001 C CNN
F 3 "" H 5650 6350 50  0001 C CNN
	1    5650 6350
	1    0    0    -1  
$EndComp
$Comp
L Device:C_Small C5
U 1 1 5D18DB70
P 5950 6150
F 0 "C5" H 5850 6100 50  0000 R CNN
F 1 "0.1uf" H 5850 6200 50  0000 R CNN
F 2 "Capacitor_SMD:C_1206_3216Metric_Pad1.42x1.75mm_HandSolder" H 5950 6150 50  0001 C CNN
F 3 "~" H 5950 6150 50  0001 C CNN
	1    5950 6150
	-1   0    0    1   
$EndComp
$Comp
L Device:C_Small C4
U 1 1 5D18D835
P 5350 6150
F 0 "C4" H 5550 6100 50  0000 R CNN
F 1 "0.22uf" H 5700 6200 50  0000 R CNN
F 2 "Capacitor_SMD:C_1206_3216Metric_Pad1.42x1.75mm_HandSolder" H 5350 6150 50  0001 C CNN
F 3 "~" H 5350 6150 50  0001 C CNN
	1    5350 6150
	-1   0    0    1   
$EndComp
$Comp
L Regulator_Linear:LF15_TO220 U3
U 1 1 5D18D6D5
P 5650 5950
F 0 "U3" H 5650 6192 50  0000 C CNN
F 1 "LF15_TO220" H 5650 6101 50  0000 C CNN
F 2 "Package_TO_SOT_THT:TO-220-3_Horizontal_TabDown" H 5650 6175 50  0001 C CIN
F 3 "http://www.st.com/content/ccc/resource/technical/document/datasheet/c4/0e/7e/2a/be/bc/4c/bd/CD00000546.pdf/files/CD00000546.pdf/jcr:content/translations/en.CD00000546.pdf" H 5650 5900 50  0001 C CNN
	1    5650 5950
	1    0    0    -1  
$EndComp
$Comp
L power:GND #PWR0107
U 1 1 5D1882BD
P 3450 6500
F 0 "#PWR0107" H 3450 6250 50  0001 C CNN
F 1 "GND" V 3455 6327 50  0000 C CNN
F 2 "" H 3450 6500 50  0001 C CNN
F 3 "" H 3450 6500 50  0001 C CNN
	1    3450 6500
	0    1    1    0   
$EndComp
$Comp
L Connector:Conn_01x02_Female J2
U 1 1 5D186D92
P 3650 6400
F 0 "J2" H 3677 6376 50  0000 L CNN
F 1 "Batt 7.4v" H 3677 6285 50  0000 L CNN
F 2 "Connector_PinHeader_2.54mm:PinHeader_1x02_P2.54mm_Vertical" H 3650 6400 50  0001 C CNN
F 3 "~" H 3650 6400 50  0001 C CNN
	1    3650 6400
	1    0    0    -1  
$EndComp
$Comp
L power:GND #PWR0101
U 1 1 5D1864BC
P 3400 7150
F 0 "#PWR0101" H 3400 6900 50  0001 C CNN
F 1 "GND" H 3405 6977 50  0000 C CNN
F 2 "" H 3400 7150 50  0001 C CNN
F 3 "" H 3400 7150 50  0001 C CNN
	1    3400 7150
	0    -1   -1   0   
$EndComp
Wire Wire Line
	3900 6950 3400 6950
Wire Wire Line
	3900 7500 3900 6950
$Comp
L Connector:Barrel_Jack_MountingPin J1
U 1 1 5D184756
P 3100 7050
F 0 "J1" H 3155 7367 50  0000 C CNN
F 1 "Barrel_Jack_MountingPin" H 3155 7276 50  0000 C CNN
F 2 "Connector_BarrelJack:BarrelJack_Horizontal" H 3150 7010 50  0001 C CNN
F 3 "~" H 3150 7010 50  0001 C CNN
	1    3100 7050
	1    0    0    -1  
$EndComp
Text Notes 1000 5450 0    118  ~ 0
Battery/Charging
$Comp
L Connector:Conn_01x03_Female J7
U 1 1 5CF3C864
P 5700 7000
F 0 "J7" V 5640 6812 50  0000 R CNN
F 1 "6vBuckConverter" V 5800 7300 50  0000 R CNN
F 2 "Connector_PinHeader_2.54mm:PinHeader_1x03_P2.54mm_Vertical" H 5700 7000 50  0001 C CNN
F 3 "~" H 5700 7000 50  0001 C CNN
	1    5700 7000
	0    -1   -1   0   
$EndComp
$Comp
L Connector:Conn_01x03_Female J8
U 1 1 5CF3CB2E
P 10350 4250
F 0 "J8" V 10290 4062 50  0000 R CNN
F 1 "SERVO_X" V 10450 4400 50  0000 R CNN
F 2 "Connector_PinHeader_2.54mm:PinHeader_1x03_P2.54mm_Vertical" H 10350 4250 50  0001 C CNN
F 3 "~" H 10350 4250 50  0001 C CNN
	1    10350 4250
	0    -1   -1   0   
$EndComp
$Comp
L Connector:Conn_01x03_Female J9
U 1 1 5CF3CC58
P 10750 4250
F 0 "J9" V 10690 4062 50  0000 R CNN
F 1 "SERVO_Y" V 10850 4400 50  0000 R CNN
F 2 "Connector_PinHeader_2.54mm:PinHeader_1x03_P2.54mm_Vertical" H 10750 4250 50  0001 C CNN
F 3 "~" H 10750 4250 50  0001 C CNN
	1    10750 4250
	0    -1   -1   0   
$EndComp
$Comp
L power:GND #PWR0104
U 1 1 5CF3CD15
P 10250 4450
F 0 "#PWR0104" H 10250 4200 50  0001 C CNN
F 1 "GND" H 10255 4277 50  0000 C CNN
F 2 "" H 10250 4450 50  0001 C CNN
F 3 "" H 10250 4450 50  0001 C CNN
	1    10250 4450
	1    0    0    -1  
$EndComp
$Comp
L power:GND #PWR0105
U 1 1 5CF3CD68
P 10650 4450
F 0 "#PWR0105" H 10650 4200 50  0001 C CNN
F 1 "GND" H 10655 4277 50  0000 C CNN
F 2 "" H 10650 4450 50  0001 C CNN
F 3 "" H 10650 4450 50  0001 C CNN
	1    10650 4450
	1    0    0    -1  
$EndComp
Wire Wire Line
	10350 4650 10350 4450
Wire Wire Line
	10750 4650 10750 4450
Text Notes 9900 3750 0    118  ~ 0
Servo Headers
Text HLabel 10450 4450 3    50   Input ~ 0
SERVO_X_SIG
Text HLabel 10850 4450 3    50   Input ~ 0
SERVO_Y_SIG
$Comp
L power:+6V #PWR0126
U 1 1 5D1966F4
P 10350 4650
F 0 "#PWR0126" H 10350 4500 50  0001 C CNN
F 1 "+6V" H 10365 4823 50  0000 C CNN
F 2 "" H 10350 4650 50  0001 C CNN
F 3 "" H 10350 4650 50  0001 C CNN
	1    10350 4650
	-1   0    0    1   
$EndComp
$Comp
L power:+6V #PWR0127
U 1 1 5D196834
P 10750 4650
F 0 "#PWR0127" H 10750 4500 50  0001 C CNN
F 1 "+6V" H 10765 4823 50  0000 C CNN
F 2 "" H 10750 4650 50  0001 C CNN
F 3 "" H 10750 4650 50  0001 C CNN
	1    10750 4650
	-1   0    0    1   
$EndComp
Wire Notes Line
	11150 3800 10000 3800
Wire Notes Line
	10000 3800 10000 5100
Wire Notes Line
	10000 5100 11150 5100
Wire Notes Line
	11150 5100 11150 3800
Wire Notes Line
	9100 6500 9100 5100
Wire Notes Line
	7950 6500 9100 6500
Wire Notes Line
	7950 5100 7950 6500
Wire Notes Line
	7950 5100 9100 5100
$Comp
L power:GND #PWR0125
U 1 1 5D1962AC
P 8550 5700
F 0 "#PWR0125" H 8550 5450 50  0001 C CNN
F 1 "GND" V 8555 5527 50  0000 C CNN
F 2 "" H 8550 5700 50  0001 C CNN
F 3 "" H 8550 5700 50  0001 C CNN
	1    8550 5700
	0    -1   -1   0   
$EndComp
$Comp
L power:+5V #PWR0124
U 1 1 5D19624F
P 8550 5900
F 0 "#PWR0124" H 8550 5750 50  0001 C CNN
F 1 "+5V" V 8565 6028 50  0000 L CNN
F 2 "" H 8550 5900 50  0001 C CNN
F 3 "" H 8550 5900 50  0001 C CNN
	1    8550 5900
	0    1    1    0   
$EndComp
Text Notes 7550 5000 0    118  ~ 0
Programmer Headers
Text HLabel 8550 6000 2    50   Input ~ 0
RX
Text HLabel 8550 6100 2    50   Input ~ 0
TX
Text HLabel 8550 6200 2    50   Input ~ 0
RST
$Comp
L Connector:Conn_01x06_Female J6
U 1 1 5CF48536
P 8350 6000
F 0 "J6" H 8244 5475 50  0000 C CNN
F 1 "Serial Header" H 8244 5566 50  0000 C CNN
F 2 "Connector_PinHeader_2.54mm:PinHeader_1x06_P2.54mm_Vertical" H 8350 6000 50  0001 C CNN
F 3 "~" H 8350 6000 50  0001 C CNN
	1    8350 6000
	-1   0    0    1   
$EndComp
Wire Notes Line
	9150 500  9150 2850
Wire Notes Line
	11200 500  9150 500 
Text GLabel 10600 1000 2    50   Input ~ 0
+7.5v-IN
Wire Wire Line
	10500 1250 10500 1300
Wire Wire Line
	10500 1000 10600 1000
Connection ~ 10500 1000
Wire Wire Line
	10500 1050 10500 1000
Wire Wire Line
	10150 1000 10500 1000
Connection ~ 10150 1000
Wire Wire Line
	10150 1050 10150 1000
Wire Wire Line
	10050 1000 10150 1000
Wire Wire Line
	10150 1300 10150 1250
Wire Wire Line
	10150 1300 10500 1300
Wire Notes Line
	11200 2850 9150 2850
Text Notes 9250 3050 0    118  ~ 0
Soft Power Latching
Wire Notes Line
	11200 500  11200 2850
Text HLabel 10450 1600 2    50   Input ~ 0
SOFT_POWER_ON
Wire Wire Line
	10150 1600 10150 1300
Connection ~ 10150 1600
$Comp
L Diode:SM2000 D2
U 1 1 5D1C0282
P 10300 1600
F 0 "D2" H 10300 1384 50  0000 C CNN
F 1 "Diode" H 10300 1475 50  0000 C CNN
F 2 "Diode_SMD:D_MELF" H 10300 1425 50  0001 C CNN
F 3 "http://cdn-reichelt.de/documents/datenblatt/A400/SMD1N400%23DIO.pdf" H 10300 1600 50  0001 C CNN
	1    10300 1600
	-1   0    0    1   
$EndComp
Connection ~ 10150 1300
Wire Wire Line
	10150 1800 10150 1600
Wire Wire Line
	10150 2400 10150 2200
$Comp
L Device:R_Small R3
U 1 1 5D1BC3DC
P 9750 2000
F 0 "R3" V 9946 2000 50  0000 C CNN
F 1 "1k" V 9855 2000 50  0000 C CNN
F 2 "Resistor_SMD:R_1206_3216Metric_Pad1.42x1.75mm_HandSolder" H 9750 2000 50  0001 C CNN
F 3 "~" H 9750 2000 50  0001 C CNN
	1    9750 2000
	0    1    1    0   
$EndComp
Text HLabel 9650 2000 0    50   Input ~ 0
PIN_PWR
$Comp
L Transistor_BJT:PN2222A Q3
U 1 1 5D1B2989
P 10050 2000
F 0 "Q3" H 10241 2046 50  0000 L CNN
F 1 "PN2222A" H 10241 1955 50  0000 L CNN
F 2 "Package_TO_SOT_THT:TO-92_Inline" H 10250 1925 50  0001 L CIN
F 3 "http://www.fairchildsemi.com/ds/PN/PN2222A.pdf" H 10050 2000 50  0001 L CNN
	1    10050 2000
	1    0    0    -1  
$EndComp
Wire Wire Line
	9850 1300 10150 1300
$Comp
L Device:C_Small C6
U 1 1 5D1A796C
P 10500 1150
F 0 "C6" H 10700 1100 50  0000 R CNN
F 1 "0.22uf" H 10850 1200 50  0000 R CNN
F 2 "Capacitor_SMD:C_1206_3216Metric_Pad1.42x1.75mm_HandSolder" H 10500 1150 50  0001 C CNN
F 3 "~" H 10500 1150 50  0001 C CNN
	1    10500 1150
	1    0    0    -1  
$EndComp
$Comp
L power:+7.5V #PWR0129
U 1 1 5D1A6E9E
P 9650 1000
F 0 "#PWR0129" H 9650 850 50  0001 C CNN
F 1 "+7.5V" V 9665 1128 50  0000 L CNN
F 2 "" H 9650 1000 50  0001 C CNN
F 3 "" H 9650 1000 50  0001 C CNN
	1    9650 1000
	0    -1   -1   0   
$EndComp
$Comp
L Device:Q_NMOS_GDS Q2
U 1 1 5D1A6674
P 9850 1100
F 0 "Q2" V 10193 1100 50  0000 C CNN
F 1 "IRF5305" V 10102 1100 50  0000 C CNN
F 2 "Package_TO_SOT_THT:TO-220-3_Horizontal_TabDown" H 10050 1200 50  0001 C CNN
F 3 "~" H 9850 1100 50  0001 C CNN
	1    9850 1100
	0    -1   -1   0   
$EndComp
$Comp
L Device:R_Small R4
U 1 1 5D1A63EB
P 10150 1150
F 0 "R4" V 10346 1150 50  0000 C CNN
F 1 "1m" V 10255 1150 50  0000 C CNN
F 2 "Resistor_SMD:R_1206_3216Metric_Pad1.42x1.75mm_HandSolder" H 10150 1150 50  0001 C CNN
F 3 "~" H 10150 1150 50  0001 C CNN
	1    10150 1150
	1    0    0    -1  
$EndComp
$Comp
L power:GND #PWR0128
U 1 1 5D1A63AA
P 10150 2400
F 0 "#PWR0128" H 10150 2150 50  0001 C CNN
F 1 "GND" V 10155 2272 50  0000 R CNN
F 2 "" H 10150 2400 50  0001 C CNN
F 3 "" H 10150 2400 50  0001 C CNN
	1    10150 2400
	1    0    0    -1  
$EndComp
Wire Notes Line
	5600 2600 5600 500 
Wire Notes Line
	7250 500  5600 500 
Wire Notes Line
	7250 2600 7250 500 
Wire Notes Line
	5600 2600 7250 2600
Wire Wire Line
	6850 1600 6850 1350
Connection ~ 6850 1600
Wire Wire Line
	7000 1600 6850 1600
Text HLabel 7000 1600 3    50   Input ~ 0
SOFT_POWER_ON
$Comp
L Switch:SW_SPDT SW5
U 1 1 5CFB69A9
P 6200 2250
F 0 "SW5" H 6200 2535 50  0000 C CNN
F 1 "SW_SPDT" H 6200 2444 50  0000 C CNN
F 2 "jakelib:MTS 102 Toggle Switch" H 6200 2250 50  0001 C CNN
F 3 "" H 6200 2250 50  0001 C CNN
	1    6200 2250
	1    0    0    -1  
$EndComp
$Comp
L Switch:SW_SPDT SW4
U 1 1 5CFB6955
P 6200 1950
F 0 "SW4" H 6200 2235 50  0000 C CNN
F 1 "SW_SPDT" H 6200 2144 50  0000 C CNN
F 2 "jakelib:MTS 102 Toggle Switch" H 6200 1950 50  0001 C CNN
F 3 "" H 6200 1950 50  0001 C CNN
	1    6200 1950
	1    0    0    -1  
$EndComp
$Comp
L Switch:SW_SPDT SW3
U 1 1 5CFB6907
P 6200 1600
F 0 "SW3" H 6200 1885 50  0000 C CNN
F 1 "SW_SPDT" H 6200 1794 50  0000 C CNN
F 2 "jakelib:MTS 102 Toggle Switch" H 6200 1600 50  0001 C CNN
F 3 "" H 6200 1600 50  0001 C CNN
	1    6200 1600
	1    0    0    -1  
$EndComp
$Comp
L Switch:SW_SPDT SW2
U 1 1 5CFB68B3
P 6200 1250
F 0 "SW2" H 6200 1535 50  0000 C CNN
F 1 "SW_SPDT" H 6200 1444 50  0000 C CNN
F 2 "jakelib:MTS 102 Toggle Switch" H 6200 1250 50  0001 C CNN
F 3 "" H 6200 1250 50  0001 C CNN
	1    6200 1250
	1    0    0    -1  
$EndComp
$Comp
L Switch:SW_SPDT SW1
U 1 1 5CFB672A
P 6200 900
F 0 "SW1" H 6200 1185 50  0000 C CNN
F 1 "SW_SPDT" H 6200 1094 50  0000 C CNN
F 2 "jakelib:MTS 102 Toggle Switch" H 6200 900 50  0001 C CNN
F 3 "" H 6200 900 50  0001 C CNN
	1    6200 900 
	1    0    0    -1  
$EndComp
Text Notes 5750 2800 0    118  ~ 0
Toggle Switches
Wire Wire Line
	6850 2050 6850 1700
Connection ~ 6850 2050
Wire Wire Line
	6400 2050 6850 2050
Wire Wire Line
	6850 1700 6850 1600
Connection ~ 6850 1700
Wire Wire Line
	6400 1700 6850 1700
Wire Wire Line
	6850 1350 6850 1000
Connection ~ 6850 1350
Wire Wire Line
	6400 1350 6850 1350
Wire Wire Line
	6850 1000 6400 1000
Wire Wire Line
	6850 2350 6850 2050
Wire Wire Line
	6400 2350 6850 2350
$Comp
L power:GND #PWR0117
U 1 1 5CF3DFA5
P 6000 900
F 0 "#PWR0117" H 6000 650 50  0001 C CNN
F 1 "GND" V 6005 772 50  0000 R CNN
F 2 "" H 6000 900 50  0001 C CNN
F 3 "" H 6000 900 50  0001 C CNN
	1    6000 900 
	0    1    1    0   
$EndComp
$Comp
L power:GND #PWR0116
U 1 1 5CF3DF78
P 6000 1250
F 0 "#PWR0116" H 6000 1000 50  0001 C CNN
F 1 "GND" V 6005 1122 50  0000 R CNN
F 2 "" H 6000 1250 50  0001 C CNN
F 3 "" H 6000 1250 50  0001 C CNN
	1    6000 1250
	0    1    1    0   
$EndComp
$Comp
L power:GND #PWR0115
U 1 1 5CF3DF4B
P 6000 1600
F 0 "#PWR0115" H 6000 1350 50  0001 C CNN
F 1 "GND" V 6005 1472 50  0000 R CNN
F 2 "" H 6000 1600 50  0001 C CNN
F 3 "" H 6000 1600 50  0001 C CNN
	1    6000 1600
	0    1    1    0   
$EndComp
$Comp
L power:GND #PWR0114
U 1 1 5CF3DF1E
P 6000 1950
F 0 "#PWR0114" H 6000 1700 50  0001 C CNN
F 1 "GND" V 6005 1822 50  0000 R CNN
F 2 "" H 6000 1950 50  0001 C CNN
F 3 "" H 6000 1950 50  0001 C CNN
	1    6000 1950
	0    1    1    0   
$EndComp
$Comp
L power:GND #PWR0113
U 1 1 5CF3DEE0
P 6000 2250
F 0 "#PWR0113" H 6000 2000 50  0001 C CNN
F 1 "GND" V 6005 2122 50  0000 R CNN
F 2 "" H 6000 2250 50  0001 C CNN
F 3 "" H 6000 2250 50  0001 C CNN
	1    6000 2250
	0    1    1    0   
$EndComp
Text HLabel 6400 2150 2    50   Input ~ 0
SW_4
Text HLabel 6400 1850 2    50   Input ~ 0
SW_3
Text HLabel 6400 1500 2    50   Input ~ 0
SW_2
Text HLabel 6400 1150 2    50   Input ~ 0
SW_1
Text HLabel 6400 800  2    50   Input ~ 0
SW_0
Wire Notes Line
	4700 5200 6650 5200
Wire Notes Line
	6650 5200 6650 7700
Wire Notes Line
	6650 7700 4700 7700
Wire Notes Line
	4700 7700 4700 5200
$EndSCHEMATC
