(module WS2812bStripSingleNoOut (layer F.Cu) (tedit 5C15E377)
  (fp_text reference REF** (at 0 0.5) (layer F.SilkS)
    (effects (font (size 1 1) (thickness 0.15)))
  )
  (fp_text value WS2812bStripSingleNoOut (at 0 -0.5) (layer F.Fab)
    (effects (font (size 1 1) (thickness 0.15)))
  )
  (fp_line (start -6.35 -6.35) (end 1.27 -6.35) (layer F.SilkS) (width 0.15))
  (fp_line (start 1.27 -6.35) (end 1.27 -19.05) (layer F.SilkS) (width 0.15))
  (fp_line (start 1.27 -19.05) (end -6.35 -19.05) (layer F.SilkS) (width 0.15))
  (fp_line (start -6.35 -19.05) (end -6.35 -6.35) (layer F.SilkS) (width 0.15))
  (fp_text user G (at -5.08 -7.62) (layer F.SilkS)
    (effects (font (size 1 1) (thickness 0.15)))
  )
  (fp_text user D (at -2.54 -7.62) (layer F.SilkS)
    (effects (font (size 1 1) (thickness 0.15)))
  )
  (fp_text user V+ (at 0 -7.62) (layer F.SilkS)
    (effects (font (size 1 1) (thickness 0.15)))
  )
  (fp_line (start -2.54 -11.43) (end -3.81 -10.16) (layer F.SilkS) (width 0.15))
  (fp_line (start -3.81 -10.16) (end -1.27 -10.16) (layer F.SilkS) (width 0.15))
  (fp_line (start -1.27 -10.16) (end -2.54 -11.43) (layer F.SilkS) (width 0.15))
  (fp_line (start -2.54 -10.16) (end -2.54 -8.89) (layer F.SilkS) (width 0.15))
  (fp_text user "RGB LED" (at -2.54 -15.24) (layer F.SilkS)
    (effects (font (size 1 1) (thickness 0.15)))
  )
  (pad 1 smd circle (at -5.08 -5.08) (size 2 2) (layers F.Cu F.Paste F.Mask))
  (pad 2 smd circle (at -2.54 -5.08) (size 2 2) (layers F.Cu F.Paste F.Mask))
  (pad 3 smd circle (at 0 -5.08) (size 2 2) (layers F.Cu F.Paste F.Mask))
)
